Continuous Glucose Monitoring (CGM) Data • hypometrics
…
3. Checking CGM data

After cleaning the data and before diving into data analysis, the
checkMissingCGM() function enables the evaluation of
missingness in glucose data.

Sample level

Firstly, you can explore the number of hours of CGM data available
per day for all participants included by running:

hypometrics::cgmCheck(cgm)
#> # A tibble: 30 × 3
#>    id    Date       total_cgm_hours
#>    <chr> <date>               <dbl>
#>  1 P01   2026-01-01            16.6
#>  2 P01   2026-01-02            23.9
#>  3 P01   2026-01-03            23.9
#>  4 P01   2026-01-04            23.9
#>  5 P01   2026-01-05            23.9
#>  6 P01   2026-01-06            23.9
#>  7 P01   2026-01-07            23.9
#>  8 P01   2026-01-08            23.9
#>  9 P01   2026-01-09            23.9
#> 10 P01   2026-01-10            23.9
#> # ℹ 20 more rows
…
